%!PS-Adobe-3.0
%%Title: CoNano_block_diagram.ps
%%Creator: XCircuit v0.0 rev2020765517
%%CreationDate: Sun Oct  3 16:34:52 2021
%%Pages: 1
%%BoundingBox: 0 0 612 792
%%DocumentNeededResources: font Helvetica Helvetica-Oblique Times-Roman 
%%EndComments
%%BeginProlog
%
%  PostScript prolog for output from xcircuit
%  Version: 3.9
%
%  Electrical circuit (and otherwise general) drawing program
%
%  Written by Tim Edwards 8/5/93--4/12/16  (tim@opencircuitdesign.com)
%  The Johns Hopkins University (1993-2004)
%  MultiGiG, Inc. (2004-2012)
%  Open Circuit Design (2012-2016)
%
%%BeginResource: procset XCIRCproc 3.9 1
%
% supporting definitions --- these are the primary xcircuit types.

/XCIRCsave save def
/topmat matrix currentmatrix def

/fontslant { /slant exch def [1 0 slant 1 0 0] 
    exch findfont exch makefont dup length dict /ndict exch def
    { 1 index /FID ne { ndict 3 1 roll put } { pop pop } ifelse } forall
    ndict definefont pop} def
/ul { count 0 gt { dup type /stringtype eq showflag 1 eq and { gsave 
   currentpoint topmat setmatrix 0 0 moveto 2 index stringwidth pop (_)
   false charpath flattenpath pathbbox grestore exch pop 1 index
   sub setlinewidth exch pop currentpoint 3 -1 roll add moveto 0
   rlineto stroke moveto } if } if } def
/ol { count 0 gt { dup type /stringtype eq showflag 1 eq and { gsave gsave
   currentpoint topmat setmatrix 2 index stringwidth pop 3 index
   true charpath flattenpath pathbbox grestore exch pop
   exch pop topmat setmatrix (_) true charpath pathbbox grestore
   exch pop 1 index sub setlinewidth exch pop currentpoint
   exch 4 1 roll exch sub add moveto pop 0 rlineto stroke
   moveto } if } if } def
/stW { gsave currentpoint newpath moveto true charpath flattenpath
	pathbbox pop exch pop sub grestore } def
/Ts {mark Tabs aload pop counttomark 1 add array astore /Tabs exch def Tabs
	0 currentpoint pop put} def
/Tbn {mark Tabs aload pop counttomark dup 2 add 1 roll cleartomark 1 sub} def
/Tb { 0 1 Tbn {Tabs exch get dup currentpoint pop lt
	{currentpoint exch pop moveto exit} {pop} ifelse } for } def
/Tf { Tbn -1 0 {Tabs exch get dup currentpoint pop gt
	{currentpoint exch pop moveto exit} {pop} ifelse } for } def
/qS { (aa) stW (a a) stW sub 4 div 0 Kn } def
/hS { qS qS } def
/pspc 0 def
/cf0 { scalefont setfont } bind def
/Kn { dup kY add /kY exch def rmoveto } bind def
/ss { /fscale fscale 0.67 mul def currentfont 0.67 cf0 0 fscale0 fscale mul
	0.33 mul neg Kn} def
/Ss { /fscale fscale 0.67 mul def currentfont 0.67 cf0 0 fscale0 fscale mul
	0.67 mul Kn } def
/ns { 0 kY neg Kn /kY 0 def /fscale 1.0 def xfont0 1.0 cf0 } def
/MR { /twidth exch def } def
/CRx { } def
/CR { ns 0 /Bline Bline fscale0 neg add def Bline moveto CRx } def
/cf { dup type /realtype ne {1.0} if exch findfont exch kY 0 eq
	{ 40 mul dup /fscale0 exch def cf0 /xfont0 currentfont def}
	{fscale0 mul fscale mul cf0} ifelse } def
/ctmk { counttomark dup 2 add -1 roll pop } bind def
/label { gsave translate 0 0 moveto dup scale neg
	/rotval exch def /twidth 100000 def /just exch def just 128 and
	0 gt {/mshow {pop} def} {/mshow {show} def} ifelse just 16 and 0
	gt {gsave rotval rotate 0 1 dtransform gsave pagemat setmatrix
	idtransform exch grestore 1 0 dtransform gsave pagemat setmatrix
	idtransform exch grestore dup abs 1e-9 lt {pop mul 0 gt} {3 1 roll
	pop pop 0 lt} ifelse grestore {-1 /rotval rotval neg def /just just
	dup 3 and 1 ne {3 xor} if def} {1} ifelse exch -1e-9 lt {-1 /rotval
	rotval neg def /just just dup 12 and 4 ne {12 xor} if def} {1}
	ifelse scale } if /showflag 0 def /fspc pspc def /Bline 0 def
	/numlines 0 def /padding 0 array def /Tabs 0 array def
	/fscale 1.0 def /kY 0 def gsave /CRx { linewid padding
	aload pop numlines 1 add dup /numlines exch def array astore
	/padding exch def /linewid 0 def } def dup 1 add copy dup 1 0
	dtransform exch atan rotate {exch dup type /stringtype eq {gsave dup
	gsave newpath 0 0 moveto true charpath flattenpath pathbbox pop exch
	pop exch pop grestore currentpoint pop add dup /linewid exch def twidth
	ge {grestore CR exch 1 add dup 2 add {CR} exch 1 roll exch} {grestore}
	ifelse true charpath flattenpath} {dup type /arraytype eq {exec} {12
	string cvs true charpath flattenpath} ifelse} ifelse} repeat
	CRx /CRx {padding aload pop just 1280 and 0 gt {blockwid exch sub just
	1024 and 0 gt {0.5 mul} if} {pop 0} ifelse 0 rmoveto numlines 1 sub
	dup /numlines exch def array astore /padding exch def} def exch pop
	pathbbox grestore 4 copy pop exch pop exch sub /blockwid exch def
	3 -1 roll pop 3 1 roll just 1 and 0 gt {just 2 and
	0 gt {exch pop neg fspc sub} {exch sub 0.5 mul neg} ifelse} {pop neg
	fspc add} ifelse exch Bline exch just 4 and 0 gt {just 8 and 0 gt
	{exch pop neg fspc sub} {add 0.5 mul neg} ifelse} {pop neg fspc add}
	ifelse rotval rotate Kn currentpoint translate /showflag 1 def /Bline
	0 def /Tabs 0 array def /fscale 1.0 def /kY 0 def CRx {dup type
	/stringtype eq {mshow} {dup type /arraytype eq {exec} {12 string cvs
	mshow} ifelse} ifelse} repeat grestore endclip} def
/pinlabel { 4 index 32 and 0 ne hlevel 0 eq or { /pspc 10 def label
	/pspc 0 def } { pop pop pop pop pop {pop} repeat } ifelse } def
/pinglobal { pinlabel } def
/infolabel { pinlabel } def
/graphic { gsave 4 index cvx exec /DataSource get resetfile translate 0 0
	moveto neg rotate dup scale cvx exec image grestore endclip} def

/scb { setrgbcolor } bind def  /sce { defColor aload pop scb } bind def
/cRedef {/defColor currentcolor 3 array astore def} def
/begingate {dup type /dicttype ne {1 dict} if begin	% default params
	dup type /dicttype ne {1 dict} if begin		% instanced params
	/hlevel hlevel 1 add def /defColor currentcolor sce 3 array astore
	def gsave sce dup type /nametype eq { pop } if translate 0 0 moveto
	neg rotate dup type /nametype eq not { dup abs currentlinewidth exch
	div setlinewidth } { pop } ifelse dup abs scale clipped 1 and 1 eq
	{/clipped clipped 1 add def} if} bind def
/endgate { /hlevel hlevel 1 sub def grestore defColor aload pop cRedef
	scb end end endclip} bind def

/hlevel 0 def
/endclip {clipped 1 and 1 eq {grestore /clipped clipped 1 sub def} if} def
/tmpa [1 0 0 1 0 0] def
/gar {8 8 true tmpa {<c0 c0 00 00 0c 0c 00 00>} imagemask} bind
{8 8 true tmpa {<30 70 60 02 03 07 06 20>} imagemask} bind
{8 8 true tmpa {<0c 1e 1e 0c c0 e1 e1 c0>} imagemask} bind
{8 8 true tmpa {<0f 0f 0f 0f f0 f0 f0 f0>} imagemask} bind
{8 8 true tmpa {<3f f3 e1 e1 f3 3f 1e 1e>} imagemask} bind
{8 8 true tmpa {<df cf 8f 9f fd fc f8 f9>} imagemask} bind
{8 8 true tmpa {<ff 3f 3f ff ff f3 f3 ff>} imagemask} bind 7 array astore def
/ppaint { gsave clip tmpa dup setmatrix pathbbox neg exch neg 4 2 roll
  neg 4 -1 roll 2 copy gt {exch} if 8 div ceiling 8 mul 4 2 roll neg 2 copy
  gt {exch} if 8 div ceiling 8 mul 3 -1 roll -8 5 -1 roll
  { 3 index exch 5 exch put dup -8 3 index { 3 index
  exch 4 exch put 3 index exec } for } for pop pop pop pop grestore } bind def
/setstyles {
  currentlinewidth mul setlinewidth /style exch def style 2048 and 0 gt
  clipped 1 and 0 eq and {clip newpath /clipped clipped 1 add def} {
  style 1 and 0 gt not {closepath} if
  style 1024 and 0 gt {2 setlinecap 0 setlinejoin} if
  style 2 and 0 gt {currentlinewidth 4 mul dup 2 array astore 0 setdash} if
  style 4 and 0 gt {0.5 currentlinewidth 4 mul 2 array astore 0 setdash} if
  gsave style 16 and 0 gt { style 224 and -5 bitshift style 256 and 0 gt {
  7 exch sub 8 div dup 1 exch sub currentrgbcolor 3 array astore
  {3 copy mul add 4 1 roll pop} forall pop pop setrgbcolor eofill}
  {dup 7 lt {gar exch get ppaint} {pop eofill} ifelse} ifelse}
  {style 256 and 0 gt {1 setgray eofill} if} ifelse grestore style 8 and 0 gt 
  style 512 eq or {newpath} {stroke} ifelse grestore endclip} ifelse} def     

/addtoy {exch dup dup 2 mul 3 add 1 roll -1 1 { 4 1 roll dup 4 1 roll add
	4 -1 roll 2 mul 1 add index 2 mul 2 add 2 roll} for pop} def
/addtoy1 {1 exch addtoy pop} def
/addtoy3 {3 exch addtoy pop} def
/addtoy4 {4 exch addtoy pop} def
/addtox {exch dup dup 2 mul 3 add 1 roll -1 1 { 4 1 roll dup 4 1 roll 3 -1 roll
	add exch 4 -1 roll 2 mul 1 add index 2 mul 2 add 2 roll} for pop} def
/addtox1 {1 exch addtox pop} def
/addtox3 {3 exch addtox pop} def
/addtox4 {4 exch addtox pop} def
/polygon { gsave /num exch def moveto num 1 sub {lineto} repeat setstyles } def
/xcarc   { gsave newpath arc setstyles } def
/elb { matrix currentmatrix 7 -1 roll 7 -1 roll translate 5 1 roll 4 -1 roll
	3 index div 1 scale } def
/ele { 0 4 1 roll 0 4 1 roll } bind def
/ellipse { gsave elb newpath ele arc setmatrix setstyles } def
/pellip  { elb ele arc setmatrix } def
/nellip  { elb ele arcn setmatrix } def
/spline  { gsave moveto curveto setstyles } def
/polyc   { {lineto} repeat } bind def
/beginpath { gsave moveto } bind def
/endpath { setstyles } bind def
/bop	 { 1 setlinecap 2 setlinejoin 6 setmiterlimit 0 0 0 scb cRedef
	/clipped 0 def} def
/psinsertion {/PSobj save def /showpage {} def /setpagedevice {pop} def bop
	rotate translate dup scale} def
/end_insert {PSobj restore} def
/setpagemat {/pagemat matrix currentmatrix def} def
/inchscale  {setpagemat 0.375 mul dup scale} def
/cmscale    {setpagemat 0.35433071 mul dup scale} def

%%EndResource
%%EndProlog
% XCircuit output starts here.

%%BeginSetup

/generic::arrowhead {
% nonetwork
begingate
8 -28 beginpath
3 -18 3 -15 0 0 curveto
-3 -15 -3 -18 -8 -28 curveto
-2 -26 2 -26 8 -28 curveto
249 
1.000 endpath
endgate
} def

/generic::dot {
% trivial
begingate
248 1.000 0 0 6 0.000 360.000 xcarc
1.000 0.000 0.000 scb
(x) {/Times-Roman cf} 2 29 -0.000 1.000 0 0 pinlabel
endgate
} def

/digital::xor {
% trivial
begingate
1 1.000 -19 -48 96 30.000 90.000 xcarc
1 1.000 -19 48 96 270.000 330.000 xcarc
1 1.000 -128 0 80 -37.000 37.000 xcarc
1 1.000 -112 0 80 -37.000 37.000 xcarc
1 1.000 -48 48 -19 48 2 polygon
1 1.000 -48 -48 -19 -48 2 polygon
1.000 0.000 0.000 scb
(Out) {/Times-Roman cf} 2 4 0.000 1.000 64 0 pinlabel
(In.1) {/Times-Roman cf} 2 7 0.000 1.000 -56 32 pinlabel
(In.2) {/Times-Roman cf} 2 7 0.000 1.000 -56 -32 pinlabel
endgate
} def


%%EndSetup

%%Page: CoNano_block_diagram 1
%%PageOrientation: Landscape
%%PageBoundingBox: 0 0 612 792
/pgsave save def bop
90 rotate 17 -629 translate
0.8667 inchscale
2.6000 setlinewidth 1213 1346 translate

0.000 0.000 0.000 scb
256 1.000 896 368 896 -1072 -992 -1072 -992 368 4 polygon
sce
0 1.000 -960 128 -960 -144 -624 -144 -624 128 4 polygon
0 1.000 192 64 192 272 608 272 608 64 4 polygon
0 1.000 -592 32 -592 -576 464 -576 464 32 4 polygon
(Input Queue) {/Helvetica cf} 2 16 0.000 1.000 -896 -16 label
(Output Queue) {/Helvetica cf} 2 16 0.000 1.000 288 160 label
(Difficulty) {/Helvetica cf} 2 16 0.000 1.000 688 -176 label
(Hashing engine) {/Helvetica cf} 2 16 0.000 1.000 -576 -16 label
(AXI-Lite) {/Helvetica cf} 2 16 0.000 1.000 -96 320 label
(mixers0) {/Helvetica cf} 2 16 0.000 1.000 -304 -176 label
(mixers1) {/Helvetica cf} 2 16 0.000 1.000 -16 -176 label
0 1.000 -352 -128 -352 -448 -128 -448 -128 -128 4 polygon
0 1.000 -544 -48 -544 -496 368 -496 368 -48 4 polygon
0 1.000 -64 -128 -64 -448 160 -448 160 -128 4 polygon
1 1.000 -128 -272 -64 -272 2 polygon
(next) {/Helvetica cf} 2 16 0.000 1.000 240 -256 label
(round) {/Helvetica cf} 2 16 0.000 1.000 240 -288 label
(previous) {/Helvetica cf} 2 16 0.000 1.000 -528 -256 label
(round) {/Helvetica cf} 2 16 0.000 1.000 -480 -288 label
1.000 90.000 -352 -272 generic::arrowhead
1.000 90.000 -544 -272 generic::arrowhead
1.000 90.000 224 -272 generic::arrowhead
1 1.000 160 -272 208 -272 2 polygon
1 1.000 368 -64 384 -64 384 -512 -528 -512 -528 -496 5 polygon
1 1.000 384 -80 400 -80 400 -528 -512 -528 -512 -512 5 polygon
(Nonce counter) {/Helvetica cf} 2 16 0.000 1.000 -928 -448 label
0 1.000 -960 -400 -960 -464 -640 -464 -640 -400 4 polygon
1 1.000 -640 -432 -544 -432 2 polygon
(Cfg/Ctrl Regs) {/Helvetica cf} 2 16 0.000 1.000 -240 160 label
0 1.000 -272 272 -272 64 48 64 48 272 4 polygon
1 1.000 -272 192 -768 192 -768 128 3 polygon
1 1.000 -768 -144 -768 -272 -560 -272 3 polygon
1.000 90.000 -64 -272 generic::arrowhead
1.000 90.000 -544 -432 generic::arrowhead
-1.000 180.000 -96 272 generic::arrowhead
-1.000 180.000 -768 128 generic::arrowhead
1 1.000 192 192 48 192 2 polygon
-1.000 270.000 48 192 generic::arrowhead
-1.000 270.000 608 192 generic::arrowhead
1 1.000 544 -64 672 -64 656 -32 560 -32 544 -64 5 polygon
1 1.000 664 -48 768 -48 768 -128 3 polygon
1 1.000 400 -304 768 -304 768 -240 3 polygon
0 1.000 672 -240 672 -128 864 -128 864 -240 4 polygon
1 1.000 464 16 480 16 480 -592 -576 -592 -576 -576 5 polygon
(x12) {/Helvetica cf} 2 16 0.000 1.000 288 -96 label
(Single Round) {/Helvetica cf} 2 16 0.000 1.000 -528 -96 label
1 1.000 -96 368 -96 272 2 polygon
1 1.000 608 -304 608 -64 2 polygon
(check) {/Helvetica cf} 2 16 0.000 1.000 720 -208 label
1 1.000 608 -32 608 16 672 16 672 192 608 192 5 polygon
-1.000 270.000 664 -48 generic::arrowhead
1.000 0.000 608 -304 generic::dot
1.000 0.000 768 -240 generic::arrowhead
1.000 0.000 608 -64 generic::arrowhead
0.600 0.600 0.600 scb
3 1.000 -352 -208 -128 -208 2 polygon
3 1.000 -352 -368 -128 -368 2 polygon
3 1.000 -352 -288 -128 -288 2 polygon
3 1.000 -64 -208 160 -208 2 polygon
3 1.000 -64 -288 160 -288 2 polygon
3 1.000 -64 -368 160 -368 2 polygon
0.361 0.675 0.934 scb
1 1.000 -320 -400 -720 -736 2 polygon
1 1.000 -160 -400 496 -704 2 polygon
1 1.000 -80 -832 704 224 0.000 360.000 ellipse
(Single Mixer) {/Helvetica cf} 2 16 0.000 1.000 -352 -656 label
0.000 0.000 0.000 scb
1 1.000 -320 -736 32 0.000 360.000 xcarc
1 1.000 -320 -720 -320 -752 2 polygon
1 1.000 -336 -736 -304 -736 2 polygon
(a) {/Helvetica cf} 2 16 0.000 1.000 -496 -752 label
(b) {/Helvetica cf} 2 16 0.000 1.000 -496 -816 label
(c) {/Helvetica cf} 2 16 0.000 1.000 -496 -880 label
(d) {/Helvetica cf} 2 16 0.000 1.000 -496 -944 label
(x) {/Helvetica cf} 2 16 0.000 1.000 -496 -992 label
(y) {/Helvetica cf} 2 16 0.000 1.000 -496 -688 label
0.500 0.000 -224 -800 digital::xor
1 1.000 -288 -736 -272 -736 -272 -784 -256 -784 4 polygon
1 1.000 -144 -864 32 0.000 360.000 xcarc
1 1.000 -144 -848 -144 -880 2 polygon
1 1.000 -160 -864 -128 -864 2 polygon
0.500 0.000 -48 -944 digital::xor
1 1.000 -192 -800 -176 -800 -176 -832 3 polygon
1 1.000 -112 -864 -96 -864 -96 -928 -80 -928 4 polygon
1.000 0.000 -272 -736 generic::dot
1.000 0.000 -176 -800 generic::dot
1.000 0.000 -96 -864 generic::dot
1 1.000 32 -736 32 0.000 360.000 xcarc
1 1.000 32 -720 32 -752 2 polygon
1 1.000 16 -736 48 -736 2 polygon
1 1.000 208 -864 32 0.000 360.000 xcarc
1 1.000 208 -848 208 -880 2 polygon
1 1.000 192 -864 224 -864 2 polygon
1 1.000 -272 -736 0 -736 2 polygon
0.500 0.000 128 -800 digital::xor
1 1.000 64 -736 80 -736 80 -784 96 -784 4 polygon
1 1.000 160 -800 176 -800 176 -832 3 polygon
1 1.000 -80 -864 160 -864 176 -864 -96 -864 spline
0.500 0.000 304 -944 digital::xor
1 1.000 240 -864 256 -864 256 -928 272 -928 4 polygon
1 1.000 0 -944 176 -944 176 -960 272 -960 4 polygon
(a1) {/Helvetica cf} 2 16 0.000 0.750 -272 -720 label
(d1) {/Helvetica cf} 2 16 0.000 0.750 -176 -784 label
(c1) {/Helvetica cf} 2 16 0.000 0.750 -96 -848 label
(b1) {/Helvetica cf} 2 16 0.000 0.750 -16 -976 label
(a2) {/Helvetica cf} 2 16 0.000 1.000 400 -752 label
(d2) {/Helvetica cf} 2 16 0.000 1.000 400 -960 label
(c2) {/Helvetica cf} 2 16 0.000 1.000 400 -880 label
(b2) {/Helvetica cf} 2 16 0.000 1.000 400 -816 label
1 1.000 -464 -736 -416 -736 -416 -704 -352 -704 4 polygon
1 1.000 -464 -800 -384 -800 -384 -736 -352 -736 4 polygon
1 1.000 -464 -976 -352 -976 -352 -768 3 polygon
1 1.000 -464 -928 -304 -928 -304 -816 -256 -816 4 polygon
1 1.000 -464 -864 -176 -864 2 polygon
1 1.000 -384 -800 -384 -960 -80 -960 3 polygon
1.000 0.000 -384 -800 generic::dot
1 1.000 -16 -944 0 -944 0 -768 3 polygon
1 1.000 -464 -672 -32 -672 0 -704 3 polygon
1 1.000 -176 -800 48 -800 48 -816 96 -816 4 polygon
1.000 0.000 0 -944 generic::dot
1 1.000 336 -944 352 -944 352 -800 400 -800 4 polygon
1 1.000 256 -864 400 -864 2 polygon
1 1.000 176 -800 336 -800 336 -832 368 -832 368 -944 400 -944 6 polygon
1 1.000 80 -736 400 -736 2 polygon
1 1.000 -352 -704 -344 -712 2 polygon
1 1.000 -352 -768 -344 -760 2 polygon
1 1.000 -176 -832 -168 -840 2 polygon
1 1.000 0 -768 8 -760 2 polygon
1 1.000 0 -704 8 -712 2 polygon
1 1.000 176 -832 184 -840 2 polygon
0.361 0.675 0.934 scb
(64-bit values) {/Helvetica cf} 2 16 0.000 1.000 -48 -656 label
1 1.000 -240 -400 80 32 0.000 360.000 ellipse
0.000 0.000 0.000 scb
(CoNano) {/Helvetica cf} 2 16 0.000 1.000 -976 320 label
1.000 0.000 256 -864 generic::dot
1.000 0.000 176 -800 generic::dot
1.000 0.000 80 -736 generic::dot
sce
(n) {/Helvetica-Oblique cf} 2 16 0.000 1.000 192 -16 label
(output hash \(x) {/Helvetica cf} 2 16 0.000 1.000 512 -336 label
(\)) {/Helvetica cf} 2 16 0.000 1.000 800 -336 label
(n) {/Helvetica-Oblique cf} 2 16 0.000 1.000 768 -336 label
(replications) {/Helvetica cf} 2 16 0.000 1.000 240 -16 label
pgsave restore showpage

%%Trailer
XCIRCsave restore
%%EOF
